protocol-analysis/signal_captures/AX20_IF60/AX20_IF60_POWERON_SEG1.vcd
$comment {"typewriter": "AX20", "interface": "IF60", "name": "POWERON_SEG1", "info": "Handshake between IF60 and AX20, after Power is suppliedSegment NR.1", "labels": {"0": "SI", "1": "SO", "2": "SCK", "3": "KBACK", "4": "READY", "5": "KBRQ"}} $end
$date 2026-01-28 13:27:42.530411 $end
$timescale 1 ns $end
$scope module AX20_IF60 $end
$var wire 1 % SI $end
$var wire 1 & SO $end
$var wire 1 ' SCK $end
$var wire 1 ( KBACK $end
$var wire 1 ) READY $end
$var wire 1 * KBRQ $end
$var wire 1 + D6 $end
$var wire 1 , D7 $end
$upscope $end
$scope module Metadata $end
$var string 1 ! typewriter $end
$var string 1 " interface $end
$var string 1 # name $end
$var string 1 $ info $end
$upscope $end
$enddefinitions $end
#0
$dumpvars
sAX20 !
sIF60 "
sPOWERON_SEG1 #
sHandshake\x20between\x20IF60\x20and\x20AX20,\x20after\x20Power\x20is\x20suppliedSegment\x20NR.1 $
1%
0&
1'
0(
1)
0*
0+
0,
$end
#124999
0)
#157500
0'
#163750
1'
#170000
0'
#176249
1'
#183749
0'
#188749
1'
#196249
0'
#202499
1'
#208749
0'
#214999
1'
#222500
0'
#228749
1'
#234999
0'
#241249
1'
#248749
0%
0'
#253749
1'
#423749
1(
#431249
1&
#613749
1)
1*
#781249
0)
0*
#909999
0&
0'
0(
#916249
1'
#921249
1%
#922499
0'
#928749
1'
#934999
1&
#936249
0'
#941249
1'
#948750
0'
#955000
1'
#961250
0'
#962499
0&
#967500
1'
#974999
0'
#981249
1'
#987499
0'
#993749
1'
#1001250
0'
#1006249
1'
#1067499
1)
1*
#1074999
0*
