protocol-analysis/signal_captures/AX20_IF60/AX20_IF60_ASCII_69.vcd
$comment {"typewriter": "AX20", "interface": "IF60", "name": "ASCII_69", "info": "Transmission from IF60 to AX20, after sending Ascii letter \"E\" to IF60 from PC ", "labels": {"0": "SI", "1": "SO", "2": "SCK", "3": "KBACK", "4": "READY", "5": "KBRQ"}} $end
$date 2026-01-26 17:54:26.761202 $end
$timescale 1 ns $end
$scope module AX20_IF60 $end
$var wire 1 % SI $end
$var wire 1 & SO $end
$var wire 1 ' SCK $end
$var wire 1 ( KBACK $end
$var wire 1 ) READY $end
$var wire 1 * KBRQ $end
$var wire 1 + D6 $end
$var wire 1 , D7 $end
$upscope $end
$scope module Metadata $end
$var string 1 ! typewriter $end
$var string 1 " interface $end
$var string 1 # name $end
$var string 1 $ info $end
$upscope $end
$enddefinitions $end
#0
$dumpvars
sAX20 !
sIF60 "
sASCII_69 #
sTransmission\x20from\x20IF60\x20to\x20AX20,\x20after\x20sending\x20Ascii\x20letter\x20"E"\x20to\x20IF60\x20from\x20PC\x20 $
1%
0&
1'
1(
1)
0*
0+
0,
$end
#199999
0)
#232000
0%
0'
0(
#236000
1'
#242000
1%
#244000
0'
#250000
1'
#257999
0%
0'
#261999
1'
#270000
0'
#276000
1'
#283999
0'
#288000
1'
#294000
1%
#296000
0'
#301999
1'
#310000
0%
0'
#314000
1'
#320000
1%
#321999
0'
#328000
1'
#682000
1(
#870000
1)
