protocol-analysis/signal_captures/AX20_IF60/AX20_IF60_ASCII_49.vcd
$comment {"typewriter": "AX20", "interface": "IF60", "name": "ASCII_49", "info": "Transmission from IF60 to AX20, after sending Ascii letter \"1\" to IF60 from PC ", "labels": {"0": "SI", "1": "SO", "2": "SCK", "3": "KBACK", "4": "READY", "5": "KBRQ"}} $end
$date 2026-01-26 17:53:41.443166 $end
$timescale 1 ns $end
$scope module AX20_IF60 $end
$var wire 1 % SI $end
$var wire 1 & SO $end
$var wire 1 ' SCK $end
$var wire 1 ( KBACK $end
$var wire 1 ) READY $end
$var wire 1 * KBRQ $end
$var wire 1 + D6 $end
$var wire 1 , D7 $end
$upscope $end
$scope module Metadata $end
$var string 1 ! typewriter $end
$var string 1 " interface $end
$var string 1 # name $end
$var string 1 $ info $end
$upscope $end
$enddefinitions $end
#0
$dumpvars
sAX20 !
sIF60 "
sASCII_49 #
sTransmission\x20from\x20IF60\x20to\x20AX20,\x20after\x20sending\x20Ascii\x20letter\x20"1"\x20to\x20IF60\x20from\x20PC\x20 $
1%
0&
1'
1(
1)
0*
0+
0,
$end
#199999
0)
#237999
0%
0'
0(
#244000
1'
#252000
0'
#256000
1'
#261999
1%
#263999
0'
#270000
1'
#278000
0'
#281999
1'
#290000
0%
0'
#296000
1'
#303999
0'
#308000
1'
#316000
0'
#321999
1'
#328000
1%
#330000
0'
#334000
1'
#737999
1(
#911999
1)
