protocol-analysis/signal_captures/CE650_IF60/CE650_IF60_ASCII_58.vcd
$comment {"typewriter": "CE650", "interface": "IF60", "name": "ASCII_58", "info": "Transmission from IF60 to AX650, after sending Ascii letter \":\" to IF60 from PC ", "labels": {"0": "SI", "1": "SO", "2": "SCK", "3": "KBACK", "4": "READY", "5": "KBRQ"}} $end
$date 2026-01-26 19:20:24.460534 $end
$timescale 1 ns $end
$scope module CE650_IF60 $end
$var wire 1 % SI $end
$var wire 1 & SO $end
$var wire 1 ' SCK $end
$var wire 1 ( KBACK $end
$var wire 1 ) READY $end
$var wire 1 * KBRQ $end
$var wire 1 + D6 $end
$var wire 1 , D7 $end
$upscope $end
$scope module Metadata $end
$var string 1 ! typewriter $end
$var string 1 " interface $end
$var string 1 # name $end
$var string 1 $ info $end
$upscope $end
$enddefinitions $end
#0
$dumpvars
sCE650 !
sIF60 "
sASCII_58 #
sTransmission\x20from\x20IF60\x20to\x20AX650,\x20after\x20sending\x20Ascii\x20letter\x20":"\x20to\x20IF60\x20from\x20PC\x20 $
1%
1&
1'
1(
1)
0*
0+
0,
$end
#59999
0)
#89399
0%
0'
0(
#96000
1'
#102600
0'
#108600
1'
#115200
1%
0'
#121799
1'
#128400
0'
#135000
1'
#141600
0'
#147599
1'
#154199
0'
#160800
1'
#167400
0'
#173400
1'
#180600
0%
0'
#186599
1'
#244199
1(
#429600
1)
