protocol-analysis/signal_captures/CE650_IF60/CE650_IF60_ASCII_43.vcd
$comment {"typewriter": "CE650", "interface": "IF60", "name": "ASCII_43", "info": "Transmission from IF60 to AX650, after sending Ascii letter \"+\" to IF60 from PC ", "labels": {"0": "SI", "1": "SO", "2": "SCK", "3": "KBACK", "4": "READY", "5": "KBRQ"}} $end
$date 2026-01-26 19:20:20.675008 $end
$timescale 1 ns $end
$scope module CE650_IF60 $end
$var wire 1 % SI $end
$var wire 1 & SO $end
$var wire 1 ' SCK $end
$var wire 1 ( KBACK $end
$var wire 1 ) READY $end
$var wire 1 * KBRQ $end
$var wire 1 + D6 $end
$var wire 1 , D7 $end
$upscope $end
$scope module Metadata $end
$var string 1 ! typewriter $end
$var string 1 " interface $end
$var string 1 # name $end
$var string 1 $ info $end
$upscope $end
$enddefinitions $end
#0
$dumpvars
sCE650 !
sIF60 "
sASCII_43 #
sTransmission\x20from\x20IF60\x20to\x20AX650,\x20after\x20sending\x20Ascii\x20letter\x20"+"\x20to\x20IF60\x20from\x20PC\x20 $
1%
1&
1'
1(
1)
0*
0+
0,
$end
#59999
0)
#97799
0%
0'
0(
#103799
1'
#110400
1%
0'
#117000
1'
#123600
0%
0'
#129600
1'
#136200
1%
#136800
0'
#142800
1'
#149400
0'
#156000
1'
#162600
0'
#168600
1'
#175200
0%
0'
#181800
1'
#187799
1%
#188400
0'
#195000
1'
#261599
1(
#448799
1)
